module gitlab.com/autokubeops/cuttle

go 1.17

require (
	github.com/sirupsen/logrus v1.8.1
	github.com/stretchr/testify v1.2.2
	github.com/urfave/cli/v2 v2.3.0
	gopkg.in/yaml.v2 v2.2.3
)

require (
	github.com/cpuguy83/go-md2man/v2 v2.0.0-20190314233015-f79a8a8ca69d // indirect
	github.com/davecgh/go-spew v1.1.1 // indirect
	github.com/pmezard/go-difflib v1.0.0 // indirect
	github.com/russross/blackfriday/v2 v2.0.1 // indirect
	github.com/shurcooL/sanitized_anchor_name v1.0.0 // indirect
	golang.org/x/sys v0.0.0-20191026070338-33540a1f6037 // indirect
)
